<?xml version="1.0" encoding="UTF-8" standalone="no"?>
<!-- Created with Inkscape (http://www.inkscape.org/) -->

<svg
   xmlns:dc="http://purl.org/dc/elements/1.1/"
   xmlns:cc="http://creativecommons.org/ns#"
   xmlns:rdf="http://www.w3.org/1999/02/22-rdf-syntax-ns#"
   xmlns:svg="http://www.w3.org/2000/svg"
   xmlns="http://www.w3.org/2000/svg"
   xmlns:xlink="http://www.w3.org/1999/xlink"
   xmlns:sodipodi="http://sodipodi.sourceforge.net/DTD/sodipodi-0.dtd"
   xmlns:inkscape="http://www.inkscape.org/namespaces/inkscape"
   width="512"
   height="512"
   id="svg2"
   version="1.1"
   inkscape:version="0.91 r13725"
   sodipodi:docname="prev_norm.svg"
   inkscape:export-filename="/home/bartek/Repositories/PyRadio/pyradio/prev_norm.png"
   inkscape:export-xdpi="11.7"
   inkscape:export-ydpi="11.7">
  <defs
     id="defs4">
    <linearGradient
       gradientTransform="translate(1.0410156e-5,-3.3837891e-5)"
       inkscape:collect="always"
       xlink:href="#linearGradient4849"
       id="linearGradient4855"
       x1="19.242863"
       y1="558.32849"
       x2="497.01764"
       y2="1027.3121"
       gradientUnits="userSpaceOnUse" />
    <linearGradient
       inkscape:collect="always"
       id="linearGradient4849">
      <stop
         style="stop-color:#ffffff;stop-opacity:1;"
         offset="0"
         id="stop4851" />
      <stop
         style="stop-color:#ffffff;stop-opacity:0;"
         offset="1"
         id="stop4853" />
    </linearGradient>
  </defs>
  <sodipodi:namedview
     id="base"
     pagecolor="#505050"
     bordercolor="#666666"
     borderopacity="1.0"
     inkscape:pageopacity="0"
     inkscape:pageshadow="2"
     inkscape:zoom="0.953125"
     inkscape:cx="-98.622954"
     inkscape:cy="256"
     inkscape:document-units="px"
     inkscape:current-layer="layer1"
     showgrid="false"
     inkscape:window-width="1125"
     inkscape:window-height="724"
     inkscape:window-x="2159"
     inkscape:window-y="224"
     inkscape:window-maximized="0"
     width="512px" />
  <metadata
     id="metadata7">
    <rdf:RDF>
      <cc:Work
         rdf:about="">
        <dc:format>image/svg+xml</dc:format>
        <dc:type
           rdf:resource="http://purl.org/dc/dcmitype/StillImage" />
        <dc:title></dc:title>
      </cc:Work>
    </rdf:RDF>
  </metadata>
  <g
     inkscape:label="Layer 1"
     inkscape:groupmode="layer"
     id="layer1"
     transform="translate(0,-540.36215)">
    <text
       xml:space="preserve"
       style="font-size:40px;font-style:normal;font-weight:normal;line-height:125%;letter-spacing:0px;word-spacing:0px;fill:#bfbfbf;fill-opacity:1;stroke:none;font-family:Sans;"
       x="126.37014"
       y="965.28015"
       id="text3757"
       sodipodi:linespacing="125%"><tspan
         sodipodi:role="line"
         id="tspan3759"
         x="126.37014"
         y="965.28015"
         style="font-size:96px;font-weight:bold;fill:#bfbfbf;fill-opacity:1;">PREV</tspan></text>
    <rect
       style="fill:#bfbfbf;fill-opacity:1;stroke-width:20;stroke-linecap:round;stroke-miterlimit:4;stroke-dasharray:none;stroke:none"
       id="rect3763-1"
       width="26.229555"
       height="181.50819"
       x="-166.48366"
       y="645.80475"
       ry="0"
       transform="scale(-1,1)" />
    <path
       style="fill:#bfbfbf;fill-opacity:1;stroke:none;stroke-width:1px;stroke-linecap:butt;stroke-linejoin:miter;stroke-opacity:1"
       d="m 182.05741,734.46051 89.18033,-89.18033 0,179.40984 z"
       id="path3789"
       inkscape:connector-curvature="0" />
    <path
       style="fill:#bfbfbf;fill-opacity:1;stroke:none;stroke-width:1px;stroke-linecap:butt;stroke-linejoin:miter;stroke-opacity:1"
       d="m 285.40167,733.93592 89.18033,-89.18033 0,179.40984 z"
       id="path3789-7"
       inkscape:connector-curvature="0" />
    <rect
       style="fill:none;fill-opacity:1;stroke:url(#linearGradient4855);stroke-width:20;stroke-linecap:butt;stroke-linejoin:miter;stroke-miterlimit:4;stroke-dasharray:none;stroke-opacity:1"
       id="rect2985"
       width="472.46332"
       height="468.50967"
       x="20.849426"
       y="561.18842"
       ry="114.36066" />
  </g>
</svg>
